<svg width="15" height="25" viewBox="0 0 15 25" fill="none" xmlns="http://www.w3.org/2000/svg">
<path d="M9.45783 1.61453L9.63137 1.63976H12.032V4.06155H9.63137C9.49639 4.06155 9.36624 4.06996 9.24091 4.08678C9.11557 4.1036 9.01434 4.13303 8.93721 4.17508C8.86009 4.21712 8.78778 4.26337 8.72029 4.31382C8.6528 4.36428 8.59496 4.41473 8.54675 4.46519C8.49855 4.51564 8.45998 4.5703 8.43106 4.62916C8.40214 4.68803 8.38286 4.73848 8.37321 4.78052L8.34429 4.90666L8.32983 4.99495V8.87992H13.0154L12.3501 11.3017H8.32983V23.4107H5.55322V11.3017H1.85107V8.87992H5.55322V5.12109C5.55322 4.59973 5.63035 4.13303 5.7846 3.72099C5.93886 3.30895 6.14614 2.9852 6.40645 2.74975C6.66676 2.5143 6.93188 2.31248 7.20183 2.1443C7.47178 1.97612 7.77065 1.85839 8.09845 1.79112C8.42624 1.72385 8.68655 1.6776 8.87937 1.65237C9.07219 1.62714 9.26501 1.61453 9.45783 1.61453ZM9.45783 0C8.26234 0 7.19219 0.25227 6.24737 0.756811C4.55056 1.64817 3.70215 3.10293 3.70215 5.12109V7.26539H1.85107C1.34974 7.26539 0.915896 7.42516 0.549537 7.7447C0.183179 8.06425 0 8.44265 0 8.87992V11.3017C0 11.739 0.183179 12.1174 0.549537 12.4369C0.915896 12.7565 1.34974 12.9162 1.85107 12.9162H3.70215V23.3855C3.70215 23.8396 3.88051 24.2222 4.23722 24.5333C4.59394 24.8444 5.03261 25 5.55322 25H8.32983C8.83116 25 9.26501 24.8444 9.63137 24.5333C9.99772 24.2222 10.1809 23.8396 10.1809 23.3855V12.9162H12.3501C12.7743 12.9162 13.1503 12.8069 13.4781 12.5883C13.8059 12.3697 14.0277 12.0922 14.1434 11.7558L14.7797 9.33401C14.9532 8.81265 14.8568 8.33754 14.4904 7.90868C14.1241 7.47982 13.6324 7.26539 13.0154 7.26539H10.1809V5.67608H12.032C12.5333 5.67608 12.9672 5.51631 13.3335 5.19677C13.6999 4.87723 13.883 4.49882 13.883 4.06155V1.63976C13.883 1.18567 13.7047 0.803061 13.348 0.491927C12.9913 0.180794 12.5622 0.025227 12.0609 0.025227H9.68921C9.61208 0.00840901 9.53496 0 9.45783 0Z" fill="white"/>
</svg>
